Antigen presentation and tumor immunogenicity in cancer immunotherapy response prediction
…
load("results/TCGA_ALL.RData")

tcga_all = tcga_all %>% 
    mutate(nAPM = (APM - min(APM, na.rm = TRUE))/ (max(APM, na.rm = TRUE) - min(APM, na.rm = TRUE)),
           nTMB = TMB_NonsynVariants / 38, 
           TIGS = log(nTMB+1) * nAPM) %>% 
    rename(Event = OS, Time = OS.time)

# keep samples with survival information
df_os = tcga_all %>% 
    filter(!is.na(Time), !is.na(Event))

df_os %>% filter(!is.na(nAPM)) %>% 
    group_by(Project) %>% summarise(N=n()) %>% arrange(N)
#> # A tibble: 32 x 2
#>    Project     N
#>    <chr>   <int>
#>  1 CHOL       36
#>  2 DLBC       47
#>  3 UCS        56
#>  4 KICH       65
#>  5 ACC        79
#>  6 UVM        80
#>  7 MESO       85
#>  8 READ       92
#>  9 SKCM      102
#> 10 THYM      119
#> # ... with 22 more rows

df_os %>% filter(!is.na(TIGS)) %>% 
    group_by(Project) %>% summarise(N=n()) %>% arrange(N)
#> # A tibble: 32 x 2
#>    Project     N
#>    <chr>   <int>
#>  1 CHOL       36
#>  2 DLBC       36
#>  3 UCS        56
#>  4 KICH       65
#>  5 ACC        79
#>  6 MESO       80
#>  7 UVM        80
#>  8 READ       89
#>  9 SKCM      102
#> 10 THYM      118
#> # ... with 22 more rows
…
if (!file.exists("results/df_all.RData")) {
    save(df_all, file = "results/df_all.RData")
}

Using the combined dataset df_all, we can normalize APM score to [0, 1] region, then we calculate median APM score for each tumor type.

df_all %>%
    mutate(N.APM = (APM - min(APM)) / (max(APM) - min(APM))) %>% 
    group_by(Project) %>% 
    summarise(MedianAPM = median(N.APM), NumberOfPatient = n()) -> sm_APM

sm_APM
#> # A tibble: 35 x 3
#>    Project                           MedianAPM NumberOfPatient
#>    <chr>                                 <dbl>           <int>
#>  1 ACC                                   0.444              79
#>  2 BLCA                                  0.588             407
#>  3 BRCA                                  0.323            1083
#>  4 CESC                                  0.734             303
#>  5 CHOL                                  0.623              36
#>  6 COAD                                  0.646             286
#>  7 Cutaneous Squamous Cell Carcinoma     0.506               4
#>  8 DLBC                                  0.816              48
#>  9 ESCA                                  0.353             184
#> 10 GBM                                   0.270             154
#> # ... with 25 more rows
…
